
(kicad_symbol_lib (version 20211014) (generator kicad_symbol_editor)
  (symbol "LD39200PU33R" (pin_names (offset 1.016)) (in_bom yes) (on_board yes)
    (property "Reference" "U" (id 0) (at -12.7 13.462 0)
      (effects (font (size 1.27 1.27)) (justify bottom left))
    )
    (property "Value" "LD39200PU33R" (id 1) (at -12.7 -12.7 0)
      (effects (font (size 1.27 1.27)) (justify bottom left))
    )
    (property "Footprint" "SON95P300X300X100-7N" (id 2) (at 0 0 0)
      (effects (font (size 1.27 1.27)) (justify bottom) hide)
    )
    (property "L1_MIN" "" (id 4) (at 0 0 0)
      (effects (font (size 1.27 1.27)) (justify bottom) hide)
    )
    (property "B_MAX" "0.45" (id 5) (at 0 0 0)
      (effects (font (size 1.27 1.27)) (justify bottom) hide)
    )
    (property "MAXIMUM_PACKAGE_HEIGHT" "1.0mm" (id 6) (at 0 0 0)
      (effects (font (size 1.27 1.27)) (justify bottom) hide)
    )
    (property "JEDEC" "" (id 7) (at 0 0 0)
      (effects (font (size 1.27 1.27)) (justify bottom) hide)
    )
    (property "D_NOM" "3.0" (id 8) (at 0 0 0)
      (effects (font (size 1.27 1.27)) (justify bottom) hide)
    )
    (property "L1_MAX" "" (id 9) (at 0 0 0)
      (effects (font (size 1.27 1.27)) (justify bottom) hide)
    )
    (property "PINS" "" (id 10) (at 0 0 0)
      (effects (font (size 1.27 1.27)) (justify bottom) hide)
    )
    (property "L_MAX" "0.5" (id 11) (at 0 0 0)
      (effects (font (size 1.27 1.27)) (justify bottom) hide)
    )
    (property "A_MAX" "1.0" (id 12) (at 0 0 0)
      (effects (font (size 1.27 1.27)) (justify bottom) hide)
    )
    (property "D1_MAX" "" (id 13) (at 0 0 0)
      (effects (font (size 1.27 1.27)) (justify bottom) hide)
    )
    (property "SNAPEDA_PACKAGE_ID" "" (id 14) (at 0 0 0)
      (effects (font (size 1.27 1.27)) (justify bottom) hide)
    )
    (property "D1_MIN" "" (id 15) (at 0 0 0)
      (effects (font (size 1.27 1.27)) (justify bottom) hide)
    )
    (property "BALL_COLUMNS" "" (id 16) (at 0 0 0)
      (effects (font (size 1.27 1.27)) (justify bottom) hide)
    )
    (property "EMAX" "" (id 17) (at 0 0 0)
      (effects (font (size 1.27 1.27)) (justify bottom) hide)
    )
    (property "D2_NOM" "2.365" (id 18) (at 0 0 0)
      (effects (font (size 1.27 1.27)) (justify bottom) hide)
    )
    (property "E2_NOM" "1.625" (id 19) (at 0 0 0)
      (effects (font (size 1.27 1.27)) (justify bottom) hide)
    )
    (property "PARTREV" "3" (id 20) (at 0 0 0)
      (effects (font (size 1.27 1.27)) (justify bottom) hide)
    )
    (property "E_NOM" "3.0" (id 21) (at 0 0 0)
      (effects (font (size 1.27 1.27)) (justify bottom) hide)
    )
    (property "B_MIN" "0.23" (id 22) (at 0 0 0)
      (effects (font (size 1.27 1.27)) (justify bottom) hide)
    )
    (property "BALL_ROWS" "" (id 23) (at 0 0 0)
      (effects (font (size 1.27 1.27)) (justify bottom) hide)
    )
    (property "L_NOM" "0.4" (id 24) (at 0 0 0)
      (effects (font (size 1.27 1.27)) (justify bottom) hide)
    )
    (property "PIN_COUNT" "6.0" (id 25) (at 0 0 0)
      (effects (font (size 1.27 1.27)) (justify bottom) hide)
    )
    (property "PIN_COLUMNS" "" (id 26) (at 0 0 0)
      (effects (font (size 1.27 1.27)) (justify bottom) hide)
    )
    (property "IPC" "" (id 27) (at 0 0 0)
      (effects (font (size 1.27 1.27)) (justify bottom) hide)
    )
    (property "EMIN" "" (id 28) (at 0 0 0)
      (effects (font (size 1.27 1.27)) (justify bottom) hide)
    )
    (property "BODY_DIAMETER" "" (id 29) (at 0 0 0)
      (effects (font (size 1.27 1.27)) (justify bottom) hide)
    )
    (property "ENOM" "0.95" (id 30) (at 0 0 0)
      (effects (font (size 1.27 1.27)) (justify bottom) hide)
    )
    (property "E_MIN" "2.9" (id 31) (at 0 0 0)
      (effects (font (size 1.27 1.27)) (justify bottom) hide)
    )
    (property "D_MIN" "2.9" (id 32) (at 0 0 0)
      (effects (font (size 1.27 1.27)) (justify bottom) hide)
    )
    (property "E_MAX" "3.1" (id 33) (at 0 0 0)
      (effects (font (size 1.27 1.27)) (justify bottom) hide)
    )
    (property "L_MIN" "0.3" (id 34) (at 0 0 0)
      (effects (font (size 1.27 1.27)) (justify bottom) hide)
    )
    (property "L1_NOM" "" (id 35) (at 0 0 0)
      (effects (font (size 1.27 1.27)) (justify bottom) hide)
    )
    (property "VACANCIES" "" (id 36) (at 0 0 0)
      (effects (font (size 1.27 1.27)) (justify bottom) hide)
    )
    (property "B_NOM" "0.34" (id 37) (at 0 0 0)
      (effects (font (size 1.27 1.27)) (justify bottom) hide)
    )
    (property "STANDARD" "IPC 7351B" (id 38) (at 0 0 0)
      (effects (font (size 1.27 1.27)) (justify bottom) hide)
    )
    (property "D1_NOM" "" (id 39) (at 0 0 0)
      (effects (font (size 1.27 1.27)) (justify bottom) hide)
    )
    (property "DNOM" "" (id 40) (at 0 0 0)
      (effects (font (size 1.27 1.27)) (justify bottom) hide)
    )
    (property "D_MAX" "3.1" (id 41) (at 0 0 0)
      (effects (font (size 1.27 1.27)) (justify bottom) hide)
    )
    (property "DMIN" "" (id 42) (at 0 0 0)
      (effects (font (size 1.27 1.27)) (justify bottom) hide)
    )
    (property "PACKAGE_TYPE" "" (id 43) (at 0 0 0)
      (effects (font (size 1.27 1.27)) (justify bottom) hide)
    )
    (property "DMAX" "" (id 44) (at 0 0 0)
      (effects (font (size 1.27 1.27)) (justify bottom) hide)
    )
    (property "MANUFACTURER" "ST Microelectronics" (id 45) (at 0 0 0)
      (effects (font (size 1.27 1.27)) (justify bottom) hide)
    )
    (property "THERMAL_PAD" "" (id 46) (at 0 0 0)
      (effects (font (size 1.27 1.27)) (justify bottom) hide)
    )
    (symbol "LD39200PU33R_0_0"
      (rectangle (start -12.7 -10.16) (end 12.7 12.7)
        (stroke (width 0.254)) (fill (type background))
      )
      (pin output line (at 17.78 7.62 180.0) (length 5.08)
        (name "OUT"
          (effects (font (size 1.016 1.016)))
        )
        (number "1"
          (effects (font (size 1.016 1.016)))
        )
      )
      (pin power_in line (at 17.78 -7.62 180.0) (length 5.08)
        (name "GND"
          (effects (font (size 1.016 1.016)))
        )
        (number "3"
          (effects (font (size 1.016 1.016)))
        )
      )
      (pin input line (at -17.78 0.0 0) (length 5.08)
        (name "SENSE"
          (effects (font (size 1.016 1.016)))
        )
        (number "2"
          (effects (font (size 1.016 1.016)))
        )
      )
      (pin input line (at -17.78 7.62 0) (length 5.08)
        (name "IN"
          (effects (font (size 1.016 1.016)))
        )
        (number "6"
          (effects (font (size 1.016 1.016)))
        )
      )
      (pin input line (at -17.78 5.08 0) (length 5.08)
        (name "EN"
          (effects (font (size 1.016 1.016)))
        )
        (number "5"
          (effects (font (size 1.016 1.016)))
        )
      )
      (pin output line (at 17.78 2.54 180.0) (length 5.08)
        (name "PG"
          (effects (font (size 1.016 1.016)))
        )
        (number "4"
          (effects (font (size 1.016 1.016)))
        )
      )
      (pin power_in line (at 17.78 -5.08 180.0) (length 5.08)
        (name "EXP"
          (effects (font (size 1.016 1.016)))
        )
        (number "7"
          (effects (font (size 1.016 1.016)))
        )
      )
    )
  )
)