(footprint "PTS636_SM25J" (version 20221018) (generator pcbnew)
  (layer "F.Cu")
  (descr "http://www.alps.com/prod/info/E/HTML/Tact/SurfaceMount/SKRK/SKRKAHE020.html")
  (tags "SMD SMT button")
  (attr smd)
  (fp_text reference "REF**" (at 0 -2.25) (layer "F.Fab")
      (effects (font (size 1 1) (thickness 0.15)))
    (tstamp 6c47c200-1b68-4f15-8a60-58e5647127a8)
  )
  (fp_text value "PTS636_SM25J" (at 0 2.5) (layer "F.Fab")
      (effects (font (size 1 1) (thickness 0.15)))
    (tstamp f986b248-cc1f-44a5-9790-ffff301168f2)
  )
  (fp_text user "${VALUE}" (at 0 0) (layer "F.SilkS")
      (effects (font (size 1 1) (thickness 0.15)))
    (tstamp 142e4b4d-1b3c-4d48-bffe-d25a36af5f2b)
  )
  (fp_line (start -2.07 -1.57) (end 2.07 -1.57)
    (stroke (width 0.12) (type solid)) (layer "F.SilkS") (tstamp 4060ff52-f8d0-44cb-9d46-856157cda78a))
  (fp_line (start -2.07 -1.27) (end -2.07 -1.57)
    (stroke (width 0.12) (type solid)) (layer "F.SilkS") (tstamp d3cb2b4a-7611-4ccf-a408-413f845e8d63))
  (fp_line (start -2.07 1.57) (end -2.07 1.27)
    (stroke (width 0.12) (type solid)) (layer "F.SilkS") (tstamp 71cd440e-0ce6-4201-b4e1-d5c71791dd23))
  (fp_line (start 2.07 -1.57) (end 2.07 -1.27)
    (stroke (width 0.12) (type solid)) (layer "F.SilkS") (tstamp 51712712-7b20-4a66-85ba-37b20437d4a0))
  (fp_line (start 2.07 1.27) (end 2.07 1.57)
    (stroke (width 0.12) (type solid)) (layer "F.SilkS") (tstamp 5c968dfc-1eb2-448f-a21f-178d0b087dc2))
  (fp_line (start 2.07 1.57) (end -2.07 1.57)
    (stroke (width 0.12) (type solid)) (layer "F.SilkS") (tstamp bbd90f6d-de1c-4162-8c75-e661323db6a1))
  (fp_line (start -2.75 -1.7) (end 2.75 -1.7)
    (stroke (width 0.05) (type solid)) (layer "F.CrtYd") (tstamp a4a6ae5d-df90-4f8b-a40d-2d08374f89f0))
  (fp_line (start -2.75 1.7) (end -2.75 -1.7)
    (stroke (width 0.05) (type solid)) (layer "F.CrtYd") (tstamp 1553cf33-9887-4393-aa61-85a116537988))
  (fp_line (start 2.75 -1.7) (end 2.75 1.7)
    (stroke (width 0.05) (type solid)) (layer "F.CrtYd") (tstamp 1483567a-82b9-40b3-84cb-f7fe7c72d519))
  (fp_line (start 2.75 1.7) (end -2.75 1.7)
    (stroke (width 0.05) (type solid)) (layer "F.CrtYd") (tstamp 4849b1e2-1925-4f75-b5f4-a46041cea182))
  (fp_line (start -1.95 -1.45) (end 1.95 -1.45)
    (stroke (width 0.1) (type solid)) (layer "F.Fab") (tstamp e82bd15c-a6cc-433e-8b88-00b7ebc8db2a))
  (fp_line (start -1.95 1.45) (end -1.95 -1.45)
    (stroke (width 0.1) (type solid)) (layer "F.Fab") (tstamp 9e526789-036d-4d99-8041-29b60d5ad07b))
  (fp_line (start 1.95 -1.45) (end 1.95 1.45)
    (stroke (width 0.1) (type solid)) (layer "F.Fab") (tstamp 27727331-48e9-4cac-9732-529cb2ecc079))
  (fp_line (start 1.95 1.45) (end -1.95 1.45)
    (stroke (width 0.1) (type solid)) (layer "F.Fab") (tstamp b7d41a45-50cc-4e16-9351-723055a2a41e))
  (fp_circle (center 0 0) (end 1 0)
    (stroke (width 0.1) (type solid)) (fill none) (layer "F.Fab") (tstamp 4352d0f7-5fe9-467a-a2cc-7a0b49e9af8a))
  (pad "1" smd roundrect (at -2.1 0) (size 0.8 2) (layers "F.Cu" "F.Paste" "F.Mask") (roundrect_rratio 0.25) (tstamp 326c8e35-c807-4874-ba94-75c4bfafa144))
  (pad "2" smd roundrect (at 2.1 0) (size 0.8 2) (layers "F.Cu" "F.Paste" "F.Mask") (roundrect_rratio 0.25) (tstamp c89f8ee5-d4ed-40c3-a1db-83506234bbb6))
  (model ":KICAD6_3RD_PARTY:3dmodels/PTS636 SM43J SMTR LFS.STEP"
    (offset (xyz 0 0 0))
    (scale (xyz 0.65 0.35 0.85))
    (rotate (xyz -90 0 0))
  )
)
