(module SIDE_LED_NO_KEEPOUT_NO_BMASK_0805-1206 (layer F.Cu) (tedit 60369BE0)
  (fp_text reference REF** (at 0 -2.05) (layer F.SilkS)
    (effects (font (size 1 1) (thickness 0.15)))
  )
  (fp_text value SIDE_LED_NO_KEEPOUT_NO_BMASK_0805-1206 (at 0 1.4) (layer F.Fab)
    (effects (font (size 1 1) (thickness 0.15)))
  )
  (fp_line (start -2.2 0) (end -2.2 0.6) (layer F.SilkS) (width 0.1))
  (fp_line (start 2 0.7) (end 2 0) (layer F.CrtYd) (width 0.05))
  (fp_line (start -2 0.7) (end 2 0.7) (layer F.CrtYd) (width 0.05))
  (fp_line (start -2 0) (end -2 0.7) (layer F.CrtYd) (width 0.05))
  (fp_poly (pts (xy 0.45 -1.2) (xy 0.7 -1.1) (xy 0.9 -0.95) (xy 1.1 -0.7)
    (xy 1.25 -0.4) (xy 1.3 -0.25) (xy -1.3 -0.25) (xy -1.25 -0.4)
    (xy -1.1 -0.7) (xy -0.9 -0.95) (xy -0.7 -1.1) (xy -0.3 -1.25)
    (xy 0 -1.3) (xy 0.3 -1.25)) (layer F.Mask) (width 0.3))
  (fp_arc (start 0 0.5) (end 2 0) (angle -151.9275131) (layer F.CrtYd) (width 0.05))
  (pad 1 smd rect (at -1.25 0.3) (size 1.2 0.6) (layers F.Cu F.Paste F.Mask))
  (pad 2 smd rect (at 1.25 0.3) (size 1.2 0.6) (layers F.Cu F.Paste F.Mask))
  (model :GLOBALPARTS:APA3010.STEP
    (offset (xyz 0 -0.25 0.5))
    (scale (xyz 1 0.8 1))
    (rotate (xyz 0 0 0))
  )
)
