(footprint "TFT 12 Pin 1.3in Flush Mount" (version 20221018) (generator pcbnew)
  (layer "F.Cu")
  (descr "TE FPC connector, 12 top-side contacts, 0.5mm pitch, SMT, https://www.te.com/commerce/DocumentDelivery/DDEController?Action=showdoc&DocId=Customer+Drawing%7F1734839%7FC%7Fpdf%7FEnglish%7FENG_CD_1734839_C_C_1734839.pdf%7F4-1734839-0")
  (tags "te fpc 1734839")
  (attr smd)
  (fp_text reference "REF**" (at 0 -3.1) (layer "F.SilkS")
      (effects (font (size 1 1) (thickness 0.15)))
    (tstamp a5bd6670-11fa-4447-a35e-894f6a107a63)
  )
  (fp_text value "PCB Cutout" (at 0 9.1) (layer "Dwgs.User") hide
      (effects (font (size 0.5 0.5) (thickness 0.08)))
    (tstamp 469fc8a9-35fd-42ba-a193-53d0d1698222)
  )
  (fp_text user "12" (at -4.6 2.9 unlocked) (layer "F.SilkS")
      (effects (font (size 0.8 0.8) (thickness 0.1)) (justify right bottom))
    (tstamp a352a6e5-7265-41de-b043-b5b9c5ec34e3)
  )
  (fp_text user "1" (at 5.05 2.95 unlocked) (layer "F.SilkS")
      (effects (font (size 0.8 0.8) (thickness 0.1)) (justify right bottom))
    (tstamp b4694005-4ebd-4408-be75-e25af25ad988)
  )
  (fp_text user "${REFERENCE}" (at 0 -3.15) (layer "F.Fab")
      (effects (font (size 1 1) (thickness 0.15)))
    (tstamp 0d308342-5470-4b65-93f0-0b4c2793873c)
  )
  (fp_rect (start -16.4 -20.525) (end 9.85 8.725)
    (stroke (width 0.1) (type solid)) (fill none) (layer "F.SilkS") (tstamp 4138983c-2683-40f8-b188-7d6b98bf271e))
  (fp_circle (center -5.33 3.48) (end -4.93 3.48)
    (stroke (width 0.05) (type solid)) (fill solid) (layer "F.SilkS") (tstamp 3ef9aef4-535d-4291-976b-e929bd5a7dab))
  (fp_circle (center 4.68 3.48) (end 5.08 3.48)
    (stroke (width 0.05) (type solid)) (fill solid) (layer "F.SilkS") (tstamp a1700d59-6473-4220-baab-8643c0f402f2))
  (fp_line (start -6.3 -2.4) (end 5.52 -2.4)
    (stroke (width 0.05) (type solid)) (layer "F.CrtYd") (tstamp f7c248ec-3285-4a5c-b51c-07b1ea637e47))
  (fp_line (start -6.3 4.245) (end -6.3 -2.405)
    (stroke (width 0.05) (type solid)) (layer "F.CrtYd") (tstamp db07de2b-094e-4e53-bb04-fc55a4662668))
  (fp_line (start 5.52 -2.4) (end 5.52 4.25)
    (stroke (width 0.05) (type solid)) (layer "F.CrtYd") (tstamp d6109659-f2b6-4275-b69a-c0079f5748fc))
  (fp_line (start 5.52 4.25) (end -6.3 4.25)
    (stroke (width 0.05) (type solid)) (layer "F.CrtYd") (tstamp 5b1e85c4-9aa8-4bb2-ad9d-649d52fe0832))
  (pad "1" smd rect (at 3.15 0) (size 0.35 3) (layers "F.Cu" "F.Paste" "F.Mask") (tstamp e8a43b26-e7e6-4d6c-9ad2-dc55dc01d100))
  (pad "2" smd rect (at 2.45 0) (size 0.35 3) (layers "F.Cu" "F.Paste" "F.Mask") (tstamp cb2521fd-2ac4-4e21-a14e-055e7171e4e9))
  (pad "3" smd rect (at 1.75 0) (size 0.35 3) (layers "F.Cu" "F.Paste" "F.Mask") (tstamp 1ae05633-41ee-41b1-b00f-0e82ca1ad4ec))
  (pad "4" smd rect (at 1.05 0) (size 0.35 3) (layers "F.Cu" "F.Paste" "F.Mask") (tstamp cc0a33f2-c8e6-4a88-9338-046ad15cd560))
  (pad "5" smd rect (at 0.35 0) (size 0.35 3) (layers "F.Cu" "F.Paste" "F.Mask") (tstamp a7305824-b1ed-4bc2-9ad4-037b5015ee31))
  (pad "6" smd rect (at -0.35 0) (size 0.35 3) (layers "F.Cu" "F.Paste" "F.Mask") (tstamp 3ac736fc-2b57-4dd9-af6a-f199d7da1eb1))
  (pad "7" smd rect (at -1.05 0) (size 0.35 3) (layers "F.Cu" "F.Paste" "F.Mask") (tstamp d7812e1c-7ebd-4591-98d9-65ce0447e3a2))
  (pad "8" smd rect (at -1.75 0) (size 0.35 3) (layers "F.Cu" "F.Paste" "F.Mask") (tstamp cbf191da-5e6c-4773-a742-377574b31557))
  (pad "9" smd rect (at -2.45 0) (size 0.35 3) (layers "F.Cu" "F.Paste" "F.Mask") (tstamp f6e24be9-d28a-411d-995d-fb87dcc8b47c))
  (pad "10" smd rect (at -3.15 0) (size 0.35 3) (layers "F.Cu" "F.Paste" "F.Mask") (tstamp 7f116be9-a729-48b6-a8ba-bc9003555f4c))
  (pad "11" smd rect (at -3.85 0) (size 0.35 3) (layers "F.Cu" "F.Paste" "F.Mask") (tstamp 8bda482a-67f4-4df3-8eb5-ec992a43b53a))
  (pad "12" smd rect (at -4.55 0) (size 0.35 3) (layers "F.Cu" "F.Paste" "F.Mask") (tstamp 7464bc14-0cd6-4a3f-94cf-5df9963d375e))
  (model ":KICAD6_3RD_PARTY:3dmodels/TFT IPS - 12 Pin 1.3in - Flush Mount.stp"
    (offset (xyz -3.5 5.75 0.2))
    (scale (xyz 1 1 1))
    (rotate (xyz 0 0 0))
  )
)
